coddep,departamento
1,"ANTIOQUIA"
3,"ATLANTICO"
5,"BOLIVAR"
7,"BOYACA"
9,"CALDAS"
11,"CAUCA"
12,"CESAR"
13,"CORDOBA"
15,"CUNDINAMARCA"
16,"BOGOTA D.C."
17,"CHOCO"
19,"HUILA"
21,"MAGDALENA"
23,"NARIÑO"
24,"RISARALDA"
25,"NORTE DE SAN"
26,"QUINDIO"
27,"SANTANDER"
28,"SUCRE"
29,"TOLIMA"
31,"VALLE"
40,"ARAUCA"
44,"CAQUETA"
46,"CASANARE"
48,"LA GUAJIRA"
50,"GUAINIA"
52,"META"
54,"GUAVIARE"
56,"SAN ANDRES"
60,"AMAZONAS"
64,"PUTUMAYO"
68,"VAUPES"
72,"VICHADA"
88,"CONSULADOS"
